<?xml version="1.0" encoding="UTF-8" standalone="no"?>
<!-- Created with Inkscape (http://www.inkscape.org/) -->
<svg
   xmlns:dc="http://purl.org/dc/elements/1.1/"
   xmlns:cc="http://web.resource.org/cc/"
   xmlns:rdf="http://www.w3.org/1999/02/22-rdf-syntax-ns#"
   xmlns:svg="http://www.w3.org/2000/svg"
   xmlns="http://www.w3.org/2000/svg"
   xmlns:sodipodi="http://sodipodi.sourceforge.net/DTD/sodipodi-0.dtd"
   xmlns:inkscape="http://www.inkscape.org/namespaces/inkscape"
   sodipodi:docname="shapes-f22.svg"
   sodipodi:docbase="/home/aaron/notes/inkdoc/shapes"
   inkscape:version="0.41+cvs"
   sodipodi:version="0.32"
   id="svg3057"
   height="1052.3622047"
   width="744.09448819">
  <defs
     id="defs3" />
  <sodipodi:namedview
     inkscape:window-y="21"
     inkscape:window-x="0"
     inkscape:window-height="513"
     inkscape:window-width="753"
     inkscape:current-layer="layer1"
     inkscape:document-units="px"
     inkscape:cy="520.00000"
     inkscape:cx="375.00000"
     inkscape:zoom="0.35000000"
     inkscape:pageshadow="2"
     inkscape:pageopacity="0.0"
     borderopacity="1.0"
     bordercolor="#666666"
     pagecolor="#ffffff"
     id="base" />
  <metadata
     id="metadata4">
    <rdf:RDF
       id="RDF5">
      <cc:Work
         id="Work6"
         rdf:about="">
        <dc:format
           id="format7">image/svg+xml</dc:format>
        <dc:type
           rdf:resource="http://purl.org/dc/dcmitype/StillImage"
           id="type9" />
      </cc:Work>
    </rdf:RDF>
  </metadata>
  <g
     id="layer1"
     inkscape:groupmode="layer"
     inkscape:label="Layer 1">
    <path
       transform="matrix(-0.128635,0.679333,-0.679333,-0.128635,4573.635,795.7550)"
       d="M 84.272412,6515.4516 C 84.030340,6503.4548 95.340638,6494.6624 106.80614,6495.4139 C 120.45487,6496.3086 130.29202,6509.1252 129.01976,6522.4700 C 127.59676,6537.3959 113.50562,6548.0810 98.800396,6546.4565 C 82.817388,6544.6909 71.418168,6529.5384 73.308998,6513.7320 C 75.329802,6496.8392 91.393728,6484.8191 108.13760,6486.9249 C 125.83419,6489.1504 138.40608,6506.0167 136.11957,6523.5835 C 133.72203,6542.0032 116.13609,6555.0738 97.832002,6552.6307 C 78.752777,6550.0842 65.226026,6531.8437 67.807486,6512.8691 C 70.485886,6493.1820 89.328290,6479.2338 108.91951,6481.9396 C 129.17162,6484.7367 143.51236,6504.1375 140.69337,6524.3009 C 137.78805,6545.0818 117.86568,6559.7903 97.167510,6556.8673 C 75.889050,6553.8624 60.833864,6533.4498 63.853199,6512.2489 C 65.300994,6502.0829 70.745613,6492.7091 78.830516,6486.3841"
       sodipodi:t0="0.076614626"
       sodipodi:argument="-17.179831"
       sodipodi:radius="40.249962"
       sodipodi:revolution="3.3807619"
       sodipodi:expansion="0.28900903"
       sodipodi:cy="6518.4199"
       sodipodi:cx="103.19778"
       id="path3031"
       style="stroke-opacity:0.23692299;stroke-dashoffset:0.0000000;stroke-miterlimit:4.0000000;marker-end:none;marker-mid:none;marker-start:none;marker:none;stroke-linejoin:miter;stroke-linecap:butt;stroke-width:0.86287699pt;stroke:none;fill-rule:evenodd;fill-opacity:1.0000000;fill:#ff6c2e;color:#000000"
       sodipodi:type="spiral" />
    <path
       transform="matrix(0.691404,0.000000,0.000000,0.691404,18.84725,-4437.019)"
       d="M 241.27769,6460.5503 C 240.94536,6458.3205 243.73245,6457.0236 245.50669,6456.8563 C 253.74986,6456.0790 258.21306,6466.1043 258.52232,6472.8118 C 258.94828,6482.0504 254.33890,6490.8920 248.02582,6497.3691"
       sodipodi:t0="0.77700925"
       sodipodi:argument="-16.245340"
       sodipodi:radius="36.507183"
       sodipodi:revolution="2.8106463"
       sodipodi:expansion="13.200652"
       sodipodi:cy="6461.3071"
       sodipodi:cx="242.34204"
       id="path2997"
       style="stroke-opacity:1.0000000;stroke-dashoffset:0.0000000;stroke-miterlimit:4.0000000;marker-end:none;marker-mid:none;marker-start:none;marker:none;stroke-linejoin:miter;stroke-linecap:butt;stroke-width:1.4463346pt;stroke:#000000;fill-rule:evenodd;fill-opacity:0.75000000;fill:none;color:#000000"
       sodipodi:type="spiral" />
    <path
       transform="matrix(0.691404,0.000000,0.000000,0.691404,10.64587,-4436.601)"
       d="M 241.27769,6460.5503 C 240.94536,6458.3205 243.73245,6457.0236 245.50668,6456.8563 C 253.74985,6456.0790 258.21307,6466.1042 258.52234,6472.8117 C 259.24136,6488.4062 246.63032,6501.3717 233.45435,6507.6236"
       sodipodi:t0="0.76208192"
       sodipodi:argument="-16.245340"
       sodipodi:radius="47.161507"
       sodipodi:revolution="2.8656998"
       sodipodi:expansion="13.200652"
       sodipodi:cy="6461.3071"
       sodipodi:cx="242.34204"
       id="path2998"
       style="stroke-opacity:1.0000000;stroke-dashoffset:0.0000000;stroke-miterlimit:4.0000000;marker-end:none;marker-mid:none;marker-start:none;marker:none;stroke-linejoin:miter;stroke-linecap:butt;stroke-width:1.4463346pt;stroke:#000000;fill-rule:evenodd;fill-opacity:0.75000000;fill:none;color:#000000"
       sodipodi:type="spiral" />
    <path
       transform="matrix(0.691404,0.000000,0.000000,0.691404,27.46530,-4437.019)"
       d="M 241.27770,6460.5503 C 240.94536,6458.3205 243.73245,6457.0236 245.50668,6456.8563 C 253.74984,6456.0790 258.21303,6466.1043 258.52229,6472.8117 C 258.73249,6477.3708 257.67831,6481.9329 255.81970,6486.0809"
       sodipodi:t0="0.79235041"
       sodipodi:argument="-16.245340"
       sodipodi:radius="28.202633"
       sodipodi:revolution="2.7562277"
       sodipodi:expansion="13.200652"
       sodipodi:cy="6461.3071"
       sodipodi:cx="242.34204"
       id="path2999"
       style="stroke-opacity:1.0000000;stroke-dashoffset:0.0000000;stroke-miterlimit:4.0000000;marker-end:none;marker-mid:none;marker-start:none;marker:none;stroke-linejoin:miter;stroke-linecap:butt;stroke-width:1.4463346pt;stroke:#000000;fill-rule:evenodd;fill-opacity:0.75000000;fill:none;color:#000000"
       sodipodi:type="spiral" />
    <path
       transform="matrix(0.691404,0.000000,0.000000,0.691404,36.19077,-4437.019)"
       d="M 241.27770,6460.5504 C 240.94536,6458.3205 243.73245,6457.0236 245.50668,6456.8563 C 253.74983,6456.0790 258.21303,6466.1042 258.52229,6472.8117 C 258.52870,6472.9507 258.53392,6473.0897 258.53798,6473.2288"
       sodipodi:t0="0.81291085"
       sodipodi:argument="-16.245340"
       sodipodi:radius="20.110537"
       sodipodi:revolution="2.6865160"
       sodipodi:expansion="13.200652"
       sodipodi:cy="6461.3071"
       sodipodi:cx="242.34204"
       id="path3000"
       style="stroke-opacity:1.0000000;stroke-dashoffset:0.0000000;stroke-miterlimit:4.0000000;marker-end:none;marker-mid:none;marker-start:none;marker:none;stroke-linejoin:miter;stroke-linecap:butt;stroke-width:1.4463346pt;stroke:#000000;fill-rule:evenodd;fill-opacity:0.75000000;fill:none;color:#000000"
       sodipodi:type="spiral" />
    <path
       transform="matrix(0.691404,0.000000,0.000000,0.691404,45.02361,-4437.019)"
       d="M 241.27770,6460.5504 C 240.94536,6458.3205 243.73245,6457.0236 245.50668,6456.8563 C 248.23890,6456.5987 250.91940,6457.8849 252.91377,6459.6703"
       sodipodi:t0="0.85272610"
       sodipodi:argument="-16.245340"
       sodipodi:radius="10.697699"
       sodipodi:revolution="2.5610781"
       sodipodi:expansion="13.200652"
       sodipodi:cy="6461.3071"
       sodipodi:cx="242.34204"
       id="path3001"
       style="stroke-opacity:1.0000000;stroke-dashoffset:0.0000000;stroke-miterlimit:4.0000000;marker-end:none;marker-mid:none;marker-start:none;marker:none;stroke-linejoin:miter;stroke-linecap:butt;stroke-width:1.4463346pt;stroke:#000000;fill-rule:evenodd;fill-opacity:0.75000000;fill:none;color:#000000"
       sodipodi:type="spiral" />
    <path
       transform="matrix(0.690923,2.577214e-2,-2.577214e-2,0.690923,168.8262,-4440.038)"
       d="M 241.27769,6460.5504 C 240.94535,6458.3205 243.73244,6457.0236 245.50667,6456.8563 C 253.74985,6456.0790 258.21308,6466.1042 258.52236,6472.8117 C 259.76982,6499.8656 227.48280,6513.6612 205.06346,6513.7366 C 203.42336,6513.7421 201.78313,6513.6953 200.14589,6513.5985"
       sodipodi:t0="0.74191737"
       sodipodi:argument="-16.245340"
       sodipodi:radius="67.193001"
       sodipodi:revolution="2.9435861"
       sodipodi:expansion="13.200652"
       sodipodi:cy="6461.3071"
       sodipodi:cx="242.34204"
       id="path3002"
       style="stroke-opacity:1.0000000;stroke-dashoffset:0.0000000;stroke-miterlimit:4.0000000;marker-end:none;marker-mid:none;marker-start:none;marker:none;stroke-linejoin:miter;stroke-linecap:butt;stroke-width:1.4463346pt;stroke:#000000;fill-rule:evenodd;fill-opacity:0.75000000;fill:none;color:#000000"
       sodipodi:type="spiral" />
    <path
       transform="matrix(0.691404,0.000000,0.000000,0.691404,-6.203756,-4382.329)"
       d="M 171.49773,6461.8798 C 169.63964,6474.0032 157.55547,6481.8777 145.68835,6479.9320 C 132.05863,6477.6972 123.23701,6464.0567 125.54300,6450.6803 C 128.15239,6435.5440 143.35150,6425.7741 158.23693,6428.4417 C 173.74540,6431.2210 184.36597,6446.1022 182.97475,6461.6144"
       sodipodi:t0="0.64947820"
       sodipodi:argument="-17.513800"
       sodipodi:radius="32.027428"
       sodipodi:revolution="2.8106463"
       sodipodi:expansion="1.0000000"
       sodipodi:cy="6456.9546"
       sodipodi:cx="151.28812"
       id="path3003"
       style="stroke-opacity:1.0000000;stroke-dashoffset:0.0000000;stroke-miterlimit:4.0000000;marker-end:none;marker-mid:none;marker-start:none;marker:none;stroke-linejoin:miter;stroke-linecap:butt;stroke-width:1.4463346pt;stroke:#000000;fill-rule:evenodd;fill-opacity:0.75000000;fill:none;color:#000000"
       sodipodi:type="spiral" />
    <path
       transform="matrix(-0.691404,0.000000,0.000000,0.691404,220.3145,-4382.458)"
       d="M 171.49773,6461.8798 C 169.63964,6474.0032 157.55547,6481.8777 145.68835,6479.9320 C 132.05863,6477.6972 123.23701,6464.0567 125.54300,6450.6803 C 128.15239,6435.5440 143.35150,6425.7741 158.23693,6428.4417 C 173.74540,6431.2210 184.36597,6446.1022 182.97475,6461.6144"
       sodipodi:t0="0.64947820"
       sodipodi:argument="-17.513800"
       sodipodi:radius="32.027428"
       sodipodi:revolution="2.8106463"
       sodipodi:expansion="1.0000000"
       sodipodi:cy="6456.9546"
       sodipodi:cx="151.28812"
       id="path3004"
       style="stroke-opacity:1.0000000;stroke-dashoffset:0.0000000;stroke-miterlimit:4.0000000;marker-end:none;marker-mid:none;marker-start:none;marker:none;stroke-linejoin:miter;stroke-linecap:round;stroke-width:1.4463346pt;stroke:#000000;fill-rule:evenodd;fill-opacity:0.75000000;fill:none;color:#000000"
       sodipodi:type="spiral" />
    <path
       transform="matrix(0.679332,-0.128635,-0.128635,-0.679332,981.4957,4517.767)"
       d="M 103.19778,6518.4199 C 103.19774,6518.4203 103.19656,6518.4198 103.19656,6518.4198 C 103.18987,6518.4163 103.19645,6518.4050 103.19957,6518.4019 C 103.22599,6518.3750 103.26963,6518.4052 103.28532,6518.4286 C 103.35064,6518.5259 103.25767,6518.6458 103.17115,6518.6882 C 102.91590,6518.8133 102.64522,6518.5864 102.55837,6518.3565 C 102.35040,6517.8059 102.82490,6517.2711 103.32682,6517.1198 C 104.37062,6516.8052 105.33013,6517.6933 105.56682,6518.6551 C 106.01136,6520.4614 104.48149,6522.0609 102.80237,6522.4038 C 99.882762,6523.0000 97.365352,6520.5286 96.896746,6517.7945 C 96.129690,6513.3192 99.923563,6509.5357 104.14024,6508.9244 C 110.71537,6507.9711 116.19082,6513.5585 116.95841,6519.7857 C 118.10853,6529.1163 110.15717,6536.7947 101.28144,6537.7275 C 88.418442,6539.0793 77.933484,6528.0852 76.832195,6515.8031 C 75.280668,6498.4997 90.113774,6484.5049 106.68965,6483.2384 C 124.44694,6481.8817 140.53509,6493.8953 146.54168,6510.2573"
       sodipodi:t0="0.0000000"
       sodipodi:argument="-17.179831"
       sodipodi:radius="44.105801"
       sodipodi:revolution="3.7046297"
       sodipodi:expansion="3.8924387"
       sodipodi:cy="6518.4199"
       sodipodi:cx="103.19778"
       id="path3626"
       style="stroke-opacity:0.23692299;stroke-dashoffset:0.0000000;stroke-miterlimit:4.0000000;marker-end:none;marker-mid:none;marker-start:none;marker:none;stroke-linejoin:miter;stroke-linecap:butt;stroke-width:0.86287699pt;stroke:none;fill-rule:evenodd;fill-opacity:1.0000000;fill:#ff6c2e;color:#000000"
       sodipodi:type="spiral" />
    <path
       transform="matrix(0.178949,-0.667845,0.667845,0.178949,-4374.555,-1086.497)"
       d="M 36.158393,6582.6982 C 35.834730,6580.7078 37.577913,6579.0756 39.438187,6578.8343 C 42.495887,6578.4378 44.954531,6581.1207 45.251293,6583.9972 C 45.715600,6588.4976 41.755731,6592.0623 37.499015,6592.4086 C 31.103109,6592.9289 26.096571,6587.2834 25.713130,6581.2060 C 25.156127,6572.3777 32.973947,6565.5324 41.395699,6565.1316 C 53.284328,6564.5660 62.431207,6575.1275 62.820884,6586.5071 C 63.287143,6600.1231 52.552372,6611.4666 39.550222,6613.9532"
       sodipodi:t0="0.53471386"
       sodipodi:argument="-21.729349"
       sodipodi:radius="30.881491"
       sodipodi:revolution="3.7046297"
       sodipodi:expansion="3.8924387"
       sodipodi:cy="6583.0801"
       sodipodi:cx="38.831650"
       id="path3627"
       style="stroke-opacity:1.0000000;stroke-dashoffset:0.0000000;stroke-miterlimit:4.0000000;marker-end:none;marker-mid:none;marker-start:none;marker:none;stroke-linejoin:miter;stroke-linecap:butt;stroke-width:1.4463346pt;stroke:#000000;fill-rule:evenodd;fill-opacity:0.75000000;fill:none;color:#000000"
       sodipodi:type="spiral" />
    <path
       transform="matrix(-0.178949,-0.667845,-0.667845,0.178949,4472.981,-1093.846)"
       d="M 36.158393,6582.6982 C 35.834730,6580.7078 37.577913,6579.0756 39.438187,6578.8343 C 42.495887,6578.4378 44.954531,6581.1207 45.251293,6583.9972 C 45.715600,6588.4976 41.755731,6592.0623 37.499015,6592.4086 C 31.103109,6592.9289 26.096571,6587.2834 25.713130,6581.2060 C 25.156127,6572.3777 32.973947,6565.5324 41.395699,6565.1316 C 53.284328,6564.5660 62.431207,6575.1275 62.820884,6586.5071 C 63.287143,6600.1231 52.552372,6611.4666 39.550222,6613.9532"
       sodipodi:t0="0.53471386"
       sodipodi:argument="-21.729349"
       sodipodi:radius="30.881491"
       sodipodi:revolution="3.7046297"
       sodipodi:expansion="3.8924387"
       sodipodi:cy="6583.0801"
       sodipodi:cx="38.831650"
       id="path3628"
       style="stroke-opacity:1.0000000;stroke-dashoffset:0.0000000;stroke-miterlimit:4.0000000;marker-end:none;marker-mid:none;marker-start:none;marker:none;stroke-linejoin:miter;stroke-linecap:butt;stroke-width:1.4463346pt;stroke:#000000;fill-rule:evenodd;fill-opacity:0.75000000;fill:none;color:#000000"
       sodipodi:type="spiral" />
    <path
       transform="matrix(0.488897,-0.488897,0.488897,0.488897,-3201.239,-3162.787)"
       d="M 36.158393,6582.6982 C 35.834730,6580.7078 37.577913,6579.0756 39.438187,6578.8343 C 42.495887,6578.4378 44.954531,6581.1207 45.251293,6583.9972 C 45.715600,6588.4976 41.755731,6592.0623 37.499015,6592.4086 C 31.103109,6592.9289 26.096571,6587.2834 25.713130,6581.2060 C 25.156127,6572.3777 32.973947,6565.5324 41.395699,6565.1316 C 53.284328,6564.5660 62.431207,6575.1275 62.820884,6586.5071 C 63.287143,6600.1231 52.552372,6611.4666 39.550222,6613.9532"
       sodipodi:t0="0.53471386"
       sodipodi:argument="-21.729349"
       sodipodi:radius="30.881491"
       sodipodi:revolution="3.7046297"
       sodipodi:expansion="3.8924387"
       sodipodi:cy="6583.0801"
       sodipodi:cx="38.831650"
       id="path3629"
       style="stroke-opacity:1.0000000;stroke-dashoffset:0.0000000;stroke-miterlimit:4.0000000;marker-end:none;marker-mid:none;marker-start:none;marker:none;stroke-linejoin:miter;stroke-linecap:butt;stroke-width:1.4463346pt;stroke:#000000;fill-rule:evenodd;fill-opacity:0.75000000;fill:none;color:#000000"
       sodipodi:type="spiral" />
    <path
       transform="matrix(0.691404,0.000000,0.000000,0.691404,35.65217,-4530.089)"
       d="M 36.158393,6582.6982 C 35.834730,6580.7078 37.577913,6579.0756 39.438187,6578.8343 C 42.495887,6578.4378 44.954531,6581.1207 45.251293,6583.9972 C 45.715600,6588.4976 41.755731,6592.0623 37.499015,6592.4086 C 31.103109,6592.9289 26.096571,6587.2834 25.713130,6581.2060 C 25.156127,6572.3777 32.973947,6565.5324 41.395699,6565.1316 C 53.284328,6564.5660 62.431207,6575.1275 62.820884,6586.5071 C 63.287143,6600.1231 52.552372,6611.4666 39.550222,6613.9532"
       sodipodi:t0="0.53471386"
       sodipodi:argument="-21.729349"
       sodipodi:radius="30.881491"
       sodipodi:revolution="3.7046297"
       sodipodi:expansion="3.8924387"
       sodipodi:cy="6583.0801"
       sodipodi:cx="38.831650"
       id="path3630"
       style="stroke-opacity:1.0000000;stroke-dashoffset:0.0000000;stroke-miterlimit:4.0000000;marker-end:none;marker-mid:none;marker-start:none;marker:none;stroke-linejoin:miter;stroke-linecap:butt;stroke-width:1.4463346pt;stroke:#000000;fill-rule:evenodd;fill-opacity:0.75000000;fill:none;color:#000000"
       sodipodi:type="spiral" />
    <path
       transform="matrix(0.691404,0.000000,0.000000,0.691404,104.6817,-4434.008)"
       d="M 253.97581,6460.7305 C 260.14442,6467.5766 259.34320,6478.2173 255.81970,6486.0809"
       sodipodi:t0="0.93520707"
       sodipodi:argument="-16.245340"
       sodipodi:radius="28.202633"
       sodipodi:revolution="2.7562277"
       sodipodi:expansion="13.200652"
       sodipodi:cy="6461.3071"
       sodipodi:cx="242.34204"
       id="path3632"
       style="stroke-opacity:1.0000000;stroke-dashoffset:0.0000000;stroke-miterlimit:4.0000000;marker-end:none;marker-mid:none;marker-start:none;marker:none;stroke-linejoin:miter;stroke-linecap:butt;stroke-width:1.4463346pt;stroke:#000000;fill-rule:evenodd;fill-opacity:0.75000000;fill:none;color:#000000"
       sodipodi:type="spiral" />
    <path
       transform="matrix(0.691404,0.000000,0.000000,0.691404,104.8965,-4448.923)"
       d="M 241.31818,6459.7695 C 242.02303,6456.7649 246.19159,6456.4883 248.54949,6457.1737 C 259.12315,6460.2473 259.84790,6474.7416 256.94304,6483.2347 C 256.61284,6484.2001 256.23690,6485.1498 255.81970,6486.0809"
       sodipodi:t0="0.81344151"
       sodipodi:argument="-16.245340"
       sodipodi:radius="28.202633"
       sodipodi:revolution="2.7562277"
       sodipodi:expansion="13.200652"
       sodipodi:cy="6461.3071"
       sodipodi:cx="242.34204"
       id="path3633"
       style="stroke-opacity:1.0000000;stroke-dashoffset:0.0000000;stroke-miterlimit:4.0000000;marker-end:none;marker-mid:none;marker-start:none;marker:none;stroke-linejoin:miter;stroke-linecap:butt;stroke-width:1.4463346pt;stroke:#000000;fill-rule:evenodd;fill-opacity:0.75000000;fill:none;color:#000000"
       sodipodi:type="spiral" />
    <path
       transform="matrix(0.345702,-0.598773,0.598773,0.345702,-3695.309,-2066.525)"
       d="M 241.31818,6459.7695 C 242.02303,6456.7649 246.19159,6456.4883 248.54949,6457.1737 C 259.12315,6460.2473 259.84790,6474.7416 256.94304,6483.2347 C 256.61284,6484.2001 256.23690,6485.1498 255.81970,6486.0809"
       sodipodi:t0="0.81344151"
       sodipodi:argument="-16.245340"
       sodipodi:radius="28.202633"
       sodipodi:revolution="2.7562277"
       sodipodi:expansion="13.200652"
       sodipodi:cy="6461.3071"
       sodipodi:cx="242.34204"
       id="path3634"
       style="stroke-opacity:1.0000000;stroke-dashoffset:0.0000000;stroke-miterlimit:4.0000000;marker-end:none;marker-mid:none;marker-start:none;marker:none;stroke-linejoin:miter;stroke-linecap:butt;stroke-width:1.4463346pt;stroke:#000000;fill-rule:evenodd;fill-opacity:0.75000000;fill:none;color:#000000"
       sodipodi:type="spiral" />
    <path
       transform="matrix(-0.488897,-0.488897,0.488897,-0.488897,-2792.131,3319.223)"
       d="M 241.31818,6459.7695 C 242.02303,6456.7649 246.19161,6456.4883 248.54952,6457.1737 C 259.12320,6460.2474 259.84793,6474.7416 256.94304,6483.2348 C 255.03972,6488.7996 251.64976,6493.7850 247.48926,6497.9103"
       sodipodi:t0="0.79694211"
       sodipodi:argument="-16.245340"
       sodipodi:radius="36.963310"
       sodipodi:revolution="2.8132913"
       sodipodi:expansion="13.200652"
       sodipodi:cy="6461.3071"
       sodipodi:cx="242.34204"
       id="path3635"
       style="stroke-opacity:1.0000000;stroke-dashoffset:0.0000000;stroke-miterlimit:4.0000000;marker-end:none;marker-mid:none;marker-start:none;marker:none;stroke-linejoin:miter;stroke-linecap:butt;stroke-width:1.4463346pt;stroke:#000000;fill-rule:evenodd;fill-opacity:0.75000000;fill:none;color:#000000"
       sodipodi:type="spiral" />
    <path
       transform="matrix(-0.691404,6.120670e-8,-6.120670e-8,-0.691404,425.7790,4523.887)"
       d="M 241.31818,6459.7695 C 242.02303,6456.7649 246.19160,6456.4883 248.54951,6457.1737 C 259.12317,6460.2473 259.84790,6474.7416 256.94303,6483.2347 C 255.06035,6488.7392 251.72243,6493.6777 247.62396,6497.7761"
       sodipodi:t0="0.79712820"
       sodipodi:argument="-16.245340"
       sodipodi:radius="36.849499"
       sodipodi:revolution="2.8126345"
       sodipodi:expansion="13.200652"
       sodipodi:cy="6461.3071"
       sodipodi:cx="242.34204"
       id="path3636"
       style="stroke-opacity:1.0000000;stroke-dashoffset:0.0000000;stroke-miterlimit:4.0000000;marker-end:none;marker-mid:none;marker-start:none;marker:none;stroke-linejoin:miter;stroke-linecap:butt;stroke-width:1.4463346pt;stroke:#000000;fill-rule:evenodd;fill-opacity:0.75000000;fill:none;color:#000000"
       sodipodi:type="spiral" />
    <path
       transform="matrix(-0.345702,0.598773,-0.598773,-0.345702,4235.693,2171.952)"
       d="M 241.31818,6459.7695 C 242.02302,6456.7649 246.19158,6456.4883 248.54948,6457.1737 C 259.12314,6460.2473 259.84791,6474.7415 256.94307,6483.2347 C 251.12992,6500.2310 233.32703,6510.0960 216.48458,6512.8167"
       sodipodi:t0="0.77057040"
       sodipodi:argument="-16.245340"
       sodipodi:radius="57.635422"
       sodipodi:revolution="2.9095716"
       sodipodi:expansion="13.200652"
       sodipodi:cy="6461.3071"
       sodipodi:cx="242.34204"
       id="path3089"
       style="stroke-opacity:1.0000000;stroke-dashoffset:0.0000000;stroke-miterlimit:4.0000000;marker-end:none;marker-mid:none;marker-start:none;marker:none;stroke-linejoin:miter;stroke-linecap:butt;stroke-width:1.4463346pt;stroke:#000000;fill-rule:evenodd;fill-opacity:0.75000000;fill:none;color:#000000"
       sodipodi:type="spiral" />
  </g>
</svg>
