<?xml version="1.0" encoding="UTF-8" standalone="no"?>
<!-- Created with Inkscape (http://www.inkscape.org/) -->
<svg
   xmlns:dc="http://purl.org/dc/elements/1.1/"
   xmlns:cc="http://web.resource.org/cc/"
   xmlns:rdf="http://www.w3.org/1999/02/22-rdf-syntax-ns#"
   xmlns:svg="http://www.w3.org/2000/svg"
   xmlns="http://www.w3.org/2000/svg"
   xmlns:sodipodi="http://sodipodi.sourceforge.net/DTD/sodipodi-0.dtd"
   xmlns:inkscape="http://www.inkscape.org/namespaces/inkscape"
   width="744.09448819"
   height="1052.3622047"
   id="svg15699"
   sodipodi:version="0.32"
   inkscape:version="0.45+devel"
   sodipodi:docbase="C:\Documents and Settings\ryan\Desktop\tut"
   sodipodi:docname="interpolate-f11.svg"
   inkscape:output_extension="org.inkscape.output.svg.inkscape">
  <defs
     id="defs15701" />
  <sodipodi:namedview
     id="base"
     pagecolor="#ffffff"
     bordercolor="#666666"
     borderopacity="1.0"
     gridtolerance="10000"
     guidetolerance="10"
     objecttolerance="10"
     inkscape:pageopacity="0.0"
     inkscape:pageshadow="2"
     inkscape:zoom="1.4"
     inkscape:cx="119.59622"
     inkscape:cy="1025.9268"
     inkscape:document-units="px"
     inkscape:current-layer="layer1"
     inkscape:window-width="1125"
     inkscape:window-height="787"
     inkscape:window-x="138"
     inkscape:window-y="119"
     showguides="true"
     inkscape:guide-bbox="true">
    <sodipodi:guide
       orientation="horizontal"
       position="1033.5714"
       id="guide2678" />
  </sodipodi:namedview>
  <metadata
     id="metadata15704">
    <rdf:RDF>
      <cc:Work
         rdf:about="">
        <dc:format>image/svg+xml</dc:format>
        <dc:type
           rdf:resource="http://purl.org/dc/dcmitype/StillImage" />
      </cc:Work>
    </rdf:RDF>
  </metadata>
  <g
     inkscape:label="Layer 1"
     inkscape:groupmode="layer"
     id="layer1">
    <g
       id="g2920"
       transform="translate(2.8125e-6,-2.3064422e-7)">
      <path
         d="M 247.59911,27.441174 L 236.94573,27.441174 L 231.61904,18.215073 L 236.94573,8.988973 L 247.59911,8.988973 L 252.9258,18.215073 L 247.59911,27.441174 z"
         id="path5198"
         style="fill:#00ff00;fill-opacity:1;stroke:#17a500;stroke-width:0.86884195;stroke-linejoin:round;stroke-miterlimit:4;stroke-opacity:1" />
      <path
         id="path5921"
         d="M 22.998502,28.619174 C 22.998502,28.619174 19.508342,25.344674 19.377502,25.344674 C 19.312082,25.344674 18.587782,30.174174 18.506002,30.174174 C 18.424232,30.174174 16.112502,26.008374 16.025272,26.008374 C 15.938042,26.008374 13.742162,30.401274 13.660382,30.401274 C 13.578612,30.401274 12.673962,25.751974 12.608542,25.751974 C 12.477702,25.751974 9.027541,29.278274 9.027541,29.278274 C 9.027541,29.278274 9.63286,24.524974 9.567439,24.411674 C 9.53473,24.355074 5.208554,26.603374 5.167667,26.532574 C 5.12678,26.461774 7.145833,22.137973 7.102221,22.062473 C 7.058606,21.986873 2.221635,22.787473 2.180748,22.716673 C 2.139861,22.645873 5.376197,19.176773 5.343486,19.120173 C 5.278067,19.006873 0.404958,18.283373 0.404958,18.283373 C 0.404958,18.283373 4.614368,15.983273 4.679789,15.869973 C 4.712498,15.813273 0.357772,13.638573 0.398659,13.567773 C 0.419103,13.532273 5.089545,12.667373 5.111011,12.630273 C 5.132477,12.593073 1.628011,9.192373 1.649818,9.154573 C 1.671624,9.116773 6.371162,9.727973 6.392627,9.690773 C 6.414094,9.653573 4.120738,5.328973 4.141182,5.293573 C 4.182069,5.222773 8.468485,7.219373 8.501197,7.162673 C 8.566615,7.049373 7.734095,2.180473 7.734095,2.180473 C 7.734095,2.180473 11.224252,5.454973 11.355092,5.454973 C 11.420512,5.454973 12.144812,0.625473 12.226582,0.625473 C 12.308362,0.625473 14.620092,4.791273 14.707322,4.791273 C 14.794552,4.791273 16.990432,0.398373 17.072202,0.398373 C 17.153982,0.398373 18.058632,5.047673 18.124052,5.047673 C 18.254892,5.047673 21.705052,1.521373 21.705052,1.521373 C 21.705052,1.521373 21.099732,6.274773 21.165152,6.388073 C 21.197862,6.444673 25.524042,4.196273 25.564922,4.267073 C 25.605812,4.337973 23.586752,8.661673 23.630372,8.737273 C 23.652182,8.774973 28.467342,7.936673 28.488812,7.973873 C 28.510272,8.011073 25.256902,11.450573 25.277342,11.485973 C 25.318232,11.556773 30.185892,12.270873 30.218602,12.327473 C 30.284022,12.440773 26.161832,14.740873 26.161832,14.740873 C 26.161832,14.740873 30.511112,16.925073 30.445692,17.038373 C 30.412982,17.095073 25.725502,17.989473 25.684612,18.060273 C 25.664172,18.095673 29.169322,21.495173 29.147852,21.532373 C 29.126382,21.569573 24.426852,20.958473 24.405042,20.996173 C 24.361432,21.071673 26.632302,25.435274 26.591412,25.506074 C 26.550522,25.576974 22.264112,23.580374 22.231392,23.636974 C 22.165982,23.750374 22.998502,28.619174 22.998502,28.619174 C 22.998502,28.619174 22.998502,28.619174 22.998502,28.619174"
         style="fill:#00ff00;fill-opacity:1;stroke:#17a500;stroke-width:0.79674554;stroke-linejoin:round;stroke-miterlimit:4;stroke-opacity:1" />
      <g
         transform="matrix(0.5218716,0,0,0.5218716,-9.217538,-573.46675)"
         id="g6545">
        <path
           d="M 430.62483,1151.7704 C 430.62483,1151.7704 428.62545,1150.874 427.01169,1150.874 C 426.22261,1150.874 425.12564,1152.196 424.13654,1152.196 C 423.28379,1152.196 421.77044,1151.0557 420.85358,1151.0557 C 419.93647,1151.0557 418.42967,1152.2582 417.52691,1152.2582 C 416.6121,1152.2582 415.49805,1150.9855 414.67906,1150.9855 C 413.60527,1150.9855 411.73254,1151.9508 410.99952,1151.9508 C 409.95172,1151.9508 409.36355,1151.4744 409.4075,1151.0912 C 409.43618,1150.8412 409.28653,1150.3343 408.98493,1149.8119 C 408.66054,1149.2501 407.01941,1149.0742 406.46875,1148.1204 C 406.05888,1147.4105 406.1678,1145.4583 405.69073,1144.632 C 405.2465,1143.8626 403.47169,1143.301 403.01038,1142.502 C 402.564,1141.7289 403.01531,1140.0265 402.58956,1139.2891 C 402.09069,1138.425 400.29948,1137.435 399.89242,1136.7299 C 399.33759,1135.769 400.02829,1134.3398 399.74492,1133.787 C 399.50577,1133.3617 399.21692,1133.042 399.02304,1132.9411 C 398.67448,1132.7596 398.54106,1131.8924 399.11692,1130.895 C 399.4802,1130.2658 401.20041,1129.2639 401.69629,1128.405 C 402.1141,1127.6813 401.60085,1125.9778 402.06575,1125.1726 C 402.49328,1124.4321 404.21215,1123.8504 404.64484,1123.101 C 405.10563,1122.3029 404.92639,1120.3422 405.3542,1119.6012 C 405.83103,1118.7753 407.43801,1118.5708 407.82181,1117.906 C 408.64206,1116.4853 408.97738,1114.3941 408.95157,1114.2426 C 408.94978,1114.2321 408.95967,1114.2264 408.98083,1114.2264 C 409.16861,1114.2264 411.12367,1115.1228 412.59341,1115.1228 C 413.38368,1115.1228 414.4803,1113.8008 415.46802,1113.8008 C 416.32129,1113.8008 417.8346,1114.9411 418.75097,1114.9411 C 419.66866,1114.9411 421.17559,1113.7386 422.07803,1113.7386 C 422.99376,1113.7386 424.10819,1115.0113 424.92679,1115.0113 C 426.00245,1115.0113 427.87527,1114.046 428.60558,1114.046 C 429.63489,1114.046 430.21179,1114.5091 430.16801,1114.8893 C 430.1384,1115.1465 430.29329,1115.6732 430.60502,1116.2132 C 430.93193,1116.7794 432.57257,1116.9544 433.12099,1117.9043 C 433.53138,1118.6151 433.42252,1120.5675 433.8993,1121.3933 C 434.3337,1122.1457 436.09809,1122.6892 436.54959,1123.4712 C 436.98749,1124.2297 436.52832,1125.9184 436.94785,1126.6451 C 437.43992,1127.4974 439.22969,1128.4849 439.64591,1129.2058 C 440.1884,1130.1454 439.5016,1131.5399 439.80373,1132.0632 C 440.07989,1132.5416 440.41803,1132.9077 440.63576,1133.0194 C 440.98034,1133.1961 441.08943,1134.006 440.54134,1134.9553 C 440.1742,1135.5913 438.44241,1136.6131 437.9308,1137.4993 C 437.51432,1138.2206 438.02803,1139.9234 437.56286,1140.729 C 437.13571,1141.4689 435.41662,1142.0509 434.98317,1142.8017 C 434.50976,1143.6217 434.67593,1145.605 434.23605,1146.3669 C 433.75958,1147.1922 432.15248,1147.3969 431.7679,1148.063 C 430.93755,1149.5012 430.62483,1151.7704 430.62483,1151.7704 C 430.62483,1151.7704 430.62483,1151.7704 430.62483,1151.7704"
           id="path6547"
           style="fill:#00ff00;fill-opacity:1;stroke:#17a500;stroke-width:1.66485786;stroke-linejoin:round;stroke-miterlimit:4;stroke-opacity:1" />
        <path
           d="M 369.14265,1152.0928 C 369.14265,1152.0928 366.36187,1150.3001 364.97528,1150.3001 C 364.29683,1150.3001 363.15136,1152.9442 362.301,1152.9442 C 361.56426,1152.9442 359.56485,1150.6635 358.77295,1150.6635 C 357.98083,1150.6635 356.02388,1153.0685 355.24546,1153.0685 C 354.45701,1153.0685 353.23971,1150.5231 352.53633,1150.5231 C 351.59972,1150.5231 348.93726,1152.4537 348.32641,1152.4537 C 347.45324,1152.4537 347.03388,1151.5008 347.12178,1150.7345 C 347.17915,1150.2345 347.07959,1149.5667 346.82001,1149.1171 C 346.53924,1148.6308 343.79001,1149.2023 343.31806,1148.3848 C 342.96345,1147.7706 343.69903,1144.7629 343.28754,1144.0502 C 342.90342,1143.3849 339.87966,1143.1726 339.48218,1142.4842 C 339.09714,1141.8173 340.5068,1139.2907 340.14156,1138.6581 C 339.70494,1137.9019 336.65597,1136.8458 336.31676,1136.2583 C 335.8544,1135.4574 337.77432,1133.532 337.55907,1133.0351 C 337.36351,1132.6742 336.94753,1132.3149 336.55977,1132.113 C 335.86265,1131.7502 335.18022,1130.7355 335.6685,1129.8898 C 335.97775,1129.3541 338.90283,1128.243 339.32292,1127.5154 C 339.67796,1126.9005 338.13105,1124.3948 338.52543,1123.7118 C 338.88867,1123.0826 341.82192,1122.793 342.18935,1122.1567 C 342.5802,1121.4797 341.69841,1118.4646 342.06146,1117.8358 C 342.47187,1117.125 345.17994,1117.5922 345.51023,1117.0201 C 346.2133,1115.8024 346.26154,1112.6979 346.20992,1112.395 C 346.20633,1112.3739 346.21345,1112.3627 346.23109,1112.3627 C 346.38757,1112.3627 349.13142,1114.1554 350.39799,1114.1554 C 351.07744,1114.1554 352.22261,1111.5113 353.07182,1111.5113 C 353.80899,1111.5113 355.80837,1113.792 356.59987,1113.792 C 357.39246,1113.792 359.34952,1111.387 360.12767,1111.387 C 360.9169,1111.387 362.1345,1113.9324 362.83756,1113.9324 C 363.77573,1113.9324 366.43826,1112.0019 367.04686,1112.0019 C 367.90461,1112.0019 368.31657,1112.928 368.22901,1113.6884 C 368.1698,1114.2027 368.27243,1114.8975 368.54063,1115.362 C 368.82351,1115.852 371.57233,1115.2798 372.04241,1116.0939 C 372.39746,1116.7089 371.66193,1119.7167 372.07317,1120.429 C 372.44214,1121.0681 375.45025,1121.2533 375.83335,1121.9168 C 376.20512,1122.5608 374.78347,1125.0665 375.13961,1125.6834 C 375.56273,1126.4162 378.60875,1127.4672 378.96605,1128.0861 C 379.43902,1128.9053 377.55021,1130.8019 377.80199,1131.238 C 378.03212,1131.6366 378.52216,1132.0463 378.95761,1132.2697 C 379.64677,1132.6231 380.25431,1133.5686 379.78477,1134.3818 C 379.46837,1134.9299 376.5282,1136.0671 376.0888,1136.8281 C 375.73521,1137.4406 377.28272,1139.9452 376.88822,1140.6285 C 376.52541,1141.2569 373.59197,1141.5467 373.2238,1142.1844 C 372.81536,1142.8919 373.67906,1145.9382 373.29944,1146.5958 C 372.88932,1147.3061 370.18115,1146.839 369.85023,1147.4122 C 369.13737,1148.6469 369.14265,1152.0928 369.14265,1152.0928 C 369.14265,1152.0928 369.14265,1152.0928 369.14265,1152.0928"
           id="path6549"
           style="fill:#00ff00;fill-opacity:1;stroke:#17a500;stroke-width:1.66485786;stroke-linejoin:round;stroke-miterlimit:4;stroke-opacity:1" />
        <path
           d="M 307.66046,1152.4153 C 307.66046,1152.4153 304.09829,1149.7262 302.93888,1149.7262 C 302.37104,1149.7262 301.17709,1153.6923 300.46547,1153.6923 C 299.84473,1153.6923 297.35927,1150.2713 296.69231,1150.2713 C 296.02519,1150.2713 293.61809,1153.8788 292.96401,1153.8788 C 292.30191,1153.8788 290.98138,1150.0607 290.39361,1150.0607 C 289.59418,1150.0607 286.14198,1152.9566 285.6533,1152.9566 C 284.95477,1152.9566 284.70422,1151.5273 284.83607,1150.3779 C 284.92211,1149.6277 284.87265,1148.7991 284.65509,1148.4223 C 284.41794,1148.0115 280.56061,1149.3303 280.16738,1148.6493 C 279.86802,1148.1308 281.23026,1144.0675 280.88435,1143.4684 C 280.56034,1142.9072 276.28763,1143.0442 275.95398,1142.4663 C 275.63028,1141.9056 277.99828,1138.555 277.69356,1138.0271 C 277.31919,1137.3787 273.01246,1136.2566 272.74109,1135.7866 C 272.3712,1135.1459 275.52034,1132.7241 275.37321,1132.2831 C 275.22125,1131.9867 274.67814,1131.5877 274.0965,1131.285 C 273.05082,1130.7407 271.81938,1129.5786 272.22007,1128.8846 C 272.47531,1128.4425 276.60526,1127.2222 276.94956,1126.6258 C 277.24181,1126.1196 274.66124,1122.8119 274.9851,1122.2509 C 275.28405,1121.7331 279.43169,1121.7357 279.73386,1121.2123 C 280.05476,1120.6565 278.47044,1116.5871 278.76871,1116.0705 C 279.11271,1115.4747 282.92188,1116.6136 283.19864,1116.1342 C 283.78454,1115.1194 283.54569,1111.0018 283.46827,1110.5474 C 283.46289,1110.5158 283.46724,1110.4989 283.48135,1110.4989 C 283.60653,1110.4989 287.13917,1113.188 288.20256,1113.188 C 288.7712,1113.188 289.96491,1109.2219 290.67562,1109.2219 C 291.29669,1109.2219 293.78214,1112.6429 294.44876,1112.6429 C 295.11627,1112.6429 297.52346,1109.0354 298.17732,1109.0354 C 298.84004,1109.0354 300.16081,1112.8535 300.74834,1112.8535 C 301.54901,1112.8535 305.00126,1109.9577 305.48814,1109.9577 C 306.17434,1109.9577 306.42135,1111.3469 306.29001,1112.4875 C 306.20119,1113.259 306.25157,1114.1217 306.47625,1114.5109 C 306.71509,1114.9246 310.57209,1113.6051 310.96382,1114.2836 C 311.26353,1114.8028 309.90133,1118.866 310.24704,1119.4648 C 310.55057,1119.9905 314.8024,1119.8174 315.11711,1120.3625 C 315.42276,1120.8919 313.03863,1124.2146 313.33137,1124.7217 C 313.68554,1125.3351 317.98782,1126.4496 318.28619,1126.9663 C 318.68964,1127.6651 315.59882,1130.0639 315.80024,1130.4128 C 315.98435,1130.7317 316.62628,1131.1849 317.27947,1131.5199 C 318.3132,1132.0501 319.41919,1133.1311 319.02819,1133.8083 C 318.76254,1134.2685 314.61399,1135.521 314.2468,1136.157 C 313.9561,1136.6605 316.5374,1139.967 316.21358,1140.5279 C 315.9151,1141.0449 311.76732,1141.0426 311.46442,1141.5672 C 311.12096,1142.1621 312.6822,1146.2715 312.36283,1146.8246 C 312.01907,1147.42 308.20983,1146.2812 307.93255,1146.7615 C 307.33719,1147.7927 307.66046,1152.4153 307.66046,1152.4153 C 307.66046,1152.4153 307.66046,1152.4153 307.66046,1152.4153"
           id="path6551"
           style="fill:#00ff00;fill-opacity:1;stroke:#17a500;stroke-width:1.66485786;stroke-linejoin:round;stroke-miterlimit:4;stroke-opacity:1" />
        <path
           d="M 246.17828,1152.7378 C 246.17828,1152.7378 241.83471,1149.1524 240.90247,1149.1524 C 240.44525,1149.1524 239.20282,1154.4405 238.62993,1154.4405 C 238.1252,1154.4405 235.15368,1149.8791 234.61168,1149.8791 C 234.06955,1149.8791 231.2123,1154.6891 230.68257,1154.6891 C 230.14682,1154.6891 228.72305,1149.5983 228.25088,1149.5983 C 227.58863,1149.5983 223.3467,1153.4594 222.98019,1153.4594 C 222.45629,1153.4594 222.37455,1151.5538 222.55035,1150.0212 C 222.66508,1149.021 222.66572,1148.0315 222.49017,1147.7274 C 222.29663,1147.3922 217.3312,1149.4584 217.0167,1148.9137 C 216.77259,1148.4909 218.76149,1143.3721 218.48117,1142.8866 C 218.21726,1142.4295 212.6956,1142.9158 212.42578,1142.4485 C 212.16341,1141.994 215.48977,1137.8192 215.24555,1137.3962 C 214.93344,1136.8556 209.36896,1135.6674 209.16543,1135.3149 C 208.88801,1134.8344 213.26636,1131.9162 213.18735,1131.5312 C 213.07898,1131.2991 212.40875,1130.8606 211.63323,1130.457 C 210.23899,1129.7313 208.45854,1128.4217 208.77165,1127.8794 C 208.97287,1127.5309 214.30768,1126.2013 214.57619,1125.7363 C 214.80566,1125.3388 211.19144,1121.2289 211.44478,1120.7901 C 211.67944,1120.3836 217.04146,1120.6783 217.27837,1120.268 C 217.52933,1119.8333 215.24247,1114.7096 215.47596,1114.3052 C 215.75355,1113.8244 220.66381,1115.635 220.88705,1115.2484 C 221.35578,1114.4365 220.82985,1109.3056 220.72661,1108.6997 C 220.71944,1108.6577 220.72103,1108.6352 220.73161,1108.6352 C 220.8255,1108.6352 225.14691,1112.2206 226.00714,1112.2206 C 226.46496,1112.2206 227.70721,1106.9325 228.27941,1106.9325 C 228.7844,1106.9325 231.7559,1111.4939 232.29766,1111.4939 C 232.84007,1111.4939 235.69739,1106.6839 236.22696,1106.6839 C 236.76317,1106.6839 238.18713,1111.7747 238.65911,1111.7747 C 239.32229,1111.7747 243.56426,1107.9135 243.92942,1107.9135 C 244.44407,1107.9135 244.52613,1109.7658 244.35101,1111.2867 C 244.23258,1112.3152 244.23071,1113.346 244.41186,1113.6597 C 244.60666,1113.9971 249.57185,1111.9305 249.88523,1112.4732 C 250.1296,1112.8966 248.14073,1118.0153 248.42091,1118.5006 C 248.659,1118.9129 254.15456,1118.3815 254.40087,1118.8081 C 254.64039,1119.223 251.29378,1123.3627 251.52313,1123.76 C 251.80834,1124.254 257.36688,1125.4319 257.60633,1125.8466 C 257.94026,1126.425 253.64743,1129.3259 253.7985,1129.5876 C 253.93657,1129.8267 254.7304,1130.3236 255.60132,1130.7702 C 256.97963,1131.4771 258.58407,1132.6936 258.27162,1133.2348 C 258.05671,1133.6071 252.69979,1134.9749 252.40481,1135.4858 C 252.17698,1135.8805 255.79209,1139.9889 255.53893,1140.4273 C 255.30479,1140.8329 249.94267,1140.5384 249.70505,1140.9499 C 249.42656,1141.4323 251.68534,1146.6047 251.42623,1147.0535 C 251.14882,1147.5339 246.2385,1145.7234 246.01487,1146.1107 C 245.53701,1146.9384 246.17828,1152.7378 246.17828,1152.7378 C 246.17828,1152.7378 246.17828,1152.7378 246.17828,1152.7378"
           id="path6553"
           style="fill:#00ff00;fill-opacity:1;stroke:#17a500;stroke-width:1.66485786;stroke-linejoin:round;stroke-miterlimit:4;stroke-opacity:1" />
        <path
           d="M 184.6961,1153.0603 C 184.6961,1153.0603 179.57112,1148.5785 178.86606,1148.5785 C 178.51946,1148.5785 177.22855,1155.1886 176.79439,1155.1886 C 176.40567,1155.1886 172.94809,1149.4869 172.53104,1149.4869 C 172.11391,1149.4869 168.80651,1155.4994 168.40112,1155.4994 C 167.99172,1155.4994 166.46472,1149.1359 166.10815,1149.1359 C 165.58308,1149.1359 160.55142,1153.9623 160.30708,1153.9623 C 159.95781,1153.9623 160.04489,1151.5802 160.26464,1149.6645 C 160.40805,1148.4143 160.45878,1147.2639 160.32525,1147.0326 C 160.17533,1146.7729 154.1018,1149.5865 153.86601,1149.1781 C 153.67716,1148.851 156.29271,1142.6768 156.07798,1142.3049 C 155.87418,1141.9519 149.10358,1142.7874 148.89757,1142.4306 C 148.69655,1142.0824 152.98126,1137.0834 152.79755,1136.7652 C 152.54769,1136.3325 145.72545,1135.0783 145.58976,1134.8432 C 145.40482,1134.5229 151.01238,1131.1083 151.0015,1130.7793 C 150.93672,1130.6116 150.13936,1130.1335 149.16996,1129.6289 C 147.42716,1128.7218 145.0977,1127.2649 145.32322,1126.8743 C 145.47043,1126.6193 152.0101,1125.1804 152.20282,1124.8467 C 152.36951,1124.5579 147.72164,1119.6459 147.90446,1119.3292 C 148.07483,1119.0341 154.65122,1119.6209 154.82287,1119.3237 C 155.00389,1119.0101 152.01449,1112.8321 152.18321,1112.5399 C 152.39438,1112.1741 158.40574,1114.6565 158.57547,1114.3625 C 158.92702,1113.7536 158.11401,1107.6095 157.98496,1106.8521 C 157.976,1106.7995 157.97481,1106.7714 157.98187,1106.7714 C 158.04446,1106.7714 163.15466,1111.2532 163.81172,1111.2532 C 164.15871,1111.2532 165.44951,1104.6431 165.88321,1104.6431 C 166.2721,1104.6431 169.72967,1110.3448 170.14655,1110.3448 C 170.56388,1110.3448 173.87133,1104.3323 174.2766,1104.3323 C 174.68631,1104.3323 176.21344,1110.6958 176.56988,1110.6958 C 177.09557,1110.6958 182.12726,1105.8693 182.37069,1105.8693 C 182.7138,1105.8693 182.63091,1108.1847 182.41201,1110.0858 C 182.26397,1111.3715 182.20985,1112.5702 182.34748,1112.8086 C 182.49824,1113.0697 188.57161,1110.2558 188.80665,1110.6629 C 188.99567,1110.9904 186.38014,1117.1646 186.59478,1117.5364 C 186.76744,1117.8354 193.50671,1116.9456 193.68464,1117.2537 C 193.85802,1117.5541 189.54894,1122.5108 189.7149,1122.7983 C 189.93115,1123.1729 196.74594,1124.4142 196.92647,1124.7269 C 197.19087,1125.1848 191.69604,1128.5879 191.79675,1128.7623 C 191.8888,1128.9218 192.83452,1129.4622 193.92317,1130.0205 C 195.64606,1130.9041 197.74895,1132.2562 197.51505,1132.6613 C 197.35088,1132.9457 190.78558,1134.4288 190.56281,1134.8147 C 190.39787,1135.1004 195.04677,1140.0107 194.86429,1140.3267 C 194.69449,1140.6209 188.11802,1140.0342 187.94568,1140.3326 C 187.73216,1140.7025 190.68848,1146.9379 190.48962,1147.2823 C 190.27856,1147.6479 184.26717,1145.1656 184.09719,1145.4599 C 183.73683,1146.0841 184.6961,1153.0603 184.6961,1153.0603 C 184.6961,1153.0603 184.6961,1153.0603 184.6961,1153.0603"
           id="path6555"
           style="fill:#00ff00;fill-opacity:1;stroke:#17a500;stroke-width:1.66485786;stroke-linejoin:round;stroke-miterlimit:4;stroke-opacity:1" />
        <path
           d="M 123.21392,1153.3827 C 123.21392,1153.3827 117.30754,1148.0046 116.82966,1148.0046 C 116.59368,1148.0046 115.25427,1155.9368 114.95885,1155.9368 C 114.68614,1155.9368 110.74251,1149.0947 110.45041,1149.0947 C 110.15827,1149.0947 106.40071,1156.3097 106.11967,1156.3097 C 105.83663,1156.3097 104.20639,1148.6735 103.96543,1148.6735 C 103.57753,1148.6735 97.756142,1154.4652 97.633971,1154.4652 C 97.459338,1154.4652 97.715223,1151.6067 97.978922,1149.3078 C 98.151015,1147.8076 98.251844,1146.4962 98.160325,1146.3377 C 98.05403,1146.1536 90.872397,1149.7145 90.71533,1149.4425 C 90.581731,1149.2111 93.823942,1141.9814 93.67479,1141.7231 C 93.531106,1141.4742 85.511547,1142.659 85.369373,1142.4128 C 85.229687,1142.1708 90.472742,1136.3477 90.34955,1136.1343 C 90.161943,1135.8093 82.081944,1134.4891 82.014101,1134.3716 C 81.92163,1134.2114 88.758405,1130.3004 88.815641,1130.0273 C 88.794451,1129.9241 87.869967,1129.4064 86.70669,1128.8009 C 84.615334,1127.7124 81.736862,1126.108 81.874794,1125.8691 C 81.967985,1125.7076 89.712527,1124.1596 89.829452,1123.9571 C 89.933365,1123.7771 84.251832,1118.0629 84.364136,1117.8684 C 84.470213,1117.6846 92.260992,1118.5636 92.367383,1118.3793 C 92.47846,1118.1869 88.786517,1110.9545 88.890464,1110.7745 C 89.035224,1110.5238 96.147676,1113.6779 96.263878,1113.4766 C 96.498263,1113.0706 95.398167,1105.9134 95.243312,1105.0045 C 95.232557,1104.9414 95.228598,1104.9077 95.232125,1104.9077 C 95.263422,1104.9077 101.16241,1110.2858 101.61629,1110.2858 C 101.85247,1110.2858 103.19181,1102.3536 103.48701,1102.3536 C 103.7598,1102.3536 107.70344,1109.1957 107.99545,1109.1957 C 108.28768,1109.1957 112.04526,1101.9807 112.32625,1101.9807 C 112.60945,1101.9807 114.23975,1109.6169 114.48065,1109.6169 C 114.86885,1109.6169 120.69026,1103.8252 120.81197,1103.8252 C 120.98353,1103.8252 120.73569,1106.6035 120.47301,1108.8849 C 120.29537,1110.4277 120.189,1111.7945 120.2831,1111.9574 C 120.38982,1112.1423 127.57137,1108.5812 127.72806,1108.8525 C 127.86175,1109.0842 124.61954,1116.3138 124.76865,1116.5721 C 124.87587,1116.7578 132.85887,1115.5097 132.9684,1115.6994 C 133.07566,1115.8852 127.80409,1121.6589 127.90666,1121.8366 C 128.05396,1122.0917 136.12501,1123.3966 136.24661,1123.6071 C 136.44149,1123.9447 129.74465,1127.8499 129.79501,1127.9371 C 129.84103,1128.0168 130.93865,1128.6008 132.24502,1129.2708 C 134.31249,1130.3311 136.91384,1131.8187 136.75847,1132.0878 C 136.64505,1132.2843 128.87137,1133.8828 128.72081,1134.1435 C 128.61876,1134.3204 134.30145,1140.0326 134.18965,1140.2262 C 134.08418,1140.4089 126.29336,1139.53 126.1863,1139.7154 C 126.03776,1139.9727 129.69161,1147.2711 129.55301,1147.5112 C 129.40831,1147.7618 122.29584,1144.6077 122.17951,1144.8092 C 121.93665,1145.2299 123.21392,1153.3827 123.21392,1153.3827 C 123.21392,1153.3827 123.21392,1153.3827 123.21392,1153.3827"
           id="path6557"
           style="fill:#00ff00;fill-opacity:1;stroke:#17a500;stroke-width:1.66485786;stroke-linejoin:round;stroke-miterlimit:4;stroke-opacity:1" />
      </g>
      <flowRoot
         transform="translate(-291.30762,14.934984)"
         style="font-size:6px;font-style:normal;font-weight:normal;fill:#000000;fill-opacity:1;stroke:none;stroke-width:1px;stroke-linecap:butt;stroke-linejoin:miter;stroke-opacity:1;font-family:sans-serif"
         id="flowRoot2609"
         xml:space="preserve"><flowRegion
           id="flowRegion2611"><rect
             style="font-size:6px"
             y="15.933611"
             x="290.71429"
             height="133.57143"
             width="127.14286"
             id="rect2613" /></flowRegion><flowPara
           id="flowPara2615">Exponent: 0.0</flowPara><flowPara
           id="flowPara2617">Interpolation Steps: 6</flowPara><flowPara
           id="flowPara2619">Interpolation Method: 2</flowPara><flowPara
           id="flowPara2621">Duplicate Endpaths: unchecked</flowPara><flowPara
           id="flowPara2623">Interpolate Style: unchecked</flowPara></flowRoot>    </g>
  </g>
</svg>
