<?xml version="1.0" encoding="UTF-8" standalone="no"?>
<!-- Created with Inkscape (http://www.inkscape.org/) -->

<svg
   xmlns:dc="http://purl.org/dc/elements/1.1/"
   xmlns:cc="http://creativecommons.org/ns#"
   xmlns:rdf="http://www.w3.org/1999/02/22-rdf-syntax-ns#"
   xmlns:svg="http://www.w3.org/2000/svg"
   xmlns="http://www.w3.org/2000/svg"
   xmlns:sodipodi="http://sodipodi.sourceforge.net/DTD/sodipodi-0.dtd"
   xmlns:inkscape="http://www.inkscape.org/namespaces/inkscape"
   sodipodi:docname="basic-f09.svg"
   inkscape:version="0.48+devel r10003 custom"
   sodipodi:version="0.32"
   id="svg2928"
   height="1052.3622047"
   width="744.09448819"
   version="1.1">
  <defs
     id="defs3" />
  <sodipodi:namedview
     inkscape:window-y="25"
     inkscape:window-x="491"
     inkscape:window-height="513"
     inkscape:window-width="751"
     inkscape:current-layer="layer1"
     inkscape:document-units="px"
     inkscape:cy="1062.6922"
     inkscape:cx="271.57576"
     inkscape:zoom="0.98994949"
     inkscape:pageshadow="2"
     inkscape:pageopacity="0.0"
     borderopacity="1.0"
     bordercolor="#666666"
     pagecolor="#ffffff"
     id="base"
     showgrid="false"
     inkscape:window-maximized="0" />
  <metadata
     id="metadata4">
    <rdf:RDF>
      <cc:Work
         rdf:about="">
        <dc:format>image/svg+xml</dc:format>
        <dc:type
           rdf:resource="http://purl.org/dc/dcmitype/StillImage" />
      </cc:Work>
    </rdf:RDF>
  </metadata>
  <g
     id="layer1"
     inkscape:groupmode="layer"
     inkscape:label="Layer 1">
    <path
       transform="matrix(0.998498,0.000000,0.000000,0.936426,0.813185,-1530.239)"
       style="font-size:12px;fill:#dbdbdb;fill-opacity:1;fill-rule:evenodd;stroke:none"
       d="m 67.136333,1653.0359 c 0,9.8338 -12.415244,17.8057 -27.730224,17.8057 -15.31498,0 -27.730225,-7.9719 -27.730225,-17.8057 0,-9.8338 12.415245,-17.8057 27.730225,-17.8057 15.31498,0 27.730224,7.9719 27.730224,17.8057 z"
       id="path1010" />
    <path
       transform="matrix(0.998498,0.000000,0.000000,0.936426,27.35753,-1530.239)"
       style="font-size:12px;fill:#dbdbdb;fill-opacity:1;fill-rule:evenodd;stroke:#000000;stroke-width:1pt;stroke-opacity:1"
       d="m 67.136333,1653.0359 c 0,9.8338 -12.415244,17.8057 -27.730224,17.8057 -15.31498,0 -27.730225,-7.9719 -27.730225,-17.8057 0,-9.8338 12.415245,-17.8057 27.730225,-17.8057 15.31498,0 27.730224,7.9719 27.730224,17.8057 z"
       id="path1011" />
    <path
       transform="matrix(0.998498,0.000000,0.000000,0.936426,57.22005,-1530.239)"
       style="font-size:12px;fill:#dbdbdb;fill-opacity:1;fill-rule:evenodd;stroke:#000000;stroke-width:1pt;stroke-opacity:0.15692294"
       d="m 67.136333,1653.0359 c 0,9.8338 -12.415244,17.8057 -27.730224,17.8057 -15.31498,0 -27.730225,-7.9719 -27.730225,-17.8057 0,-9.8338 12.415245,-17.8057 27.730225,-17.8057 15.31498,0 27.730224,7.9719 27.730224,17.8057 z"
       id="path1012" />
    <path
       transform="matrix(0.998498,0.000000,0.000000,0.936426,83.76456,-1530.239)"
       style="font-size:12px;fill:#dbdbdb;fill-opacity:1;fill-rule:evenodd;stroke:#ff0000;stroke-width:1pt;stroke-opacity:1"
       d="m 67.136333,1653.0359 c 0,9.8338 -12.415244,17.8057 -27.730224,17.8057 -15.31498,0 -27.730225,-7.9719 -27.730225,-17.8057 0,-9.8338 12.415245,-17.8057 27.730225,-17.8057 15.31498,0 27.730224,7.9719 27.730224,17.8057 z"
       id="path1013" />
    <path
       transform="matrix(0.998498,0.000000,0.000000,0.936426,113.6271,-1530.239)"
       style="font-size:12px;fill:#dbdbdb;fill-opacity:1;fill-rule:evenodd;stroke:#00ff7c;stroke-width:1pt;stroke-opacity:1"
       d="m 67.136333,1653.0359 c 0,9.8338 -12.415244,17.8057 -27.730224,17.8057 -15.31498,0 -27.730225,-7.9719 -27.730225,-17.8057 0,-9.8338 12.415245,-17.8057 27.730225,-17.8057 15.31498,0 27.730224,7.9719 27.730224,17.8057 z"
       id="path1014" />
    <path
       transform="matrix(0.998498,0.000000,0.000000,0.936426,146.8075,-1530.239)"
       style="font-size:12px;fill:#dbdbdb;fill-opacity:1;fill-rule:evenodd;stroke:#16417c;stroke-width:1pt;stroke-opacity:1"
       d="m 67.136333,1653.0359 c 0,9.8338 -12.415244,17.8057 -27.730224,17.8057 -15.31498,0 -27.730225,-7.9719 -27.730225,-17.8057 0,-9.8338 12.415245,-17.8057 27.730225,-17.8057 15.31498,0 27.730224,7.9719 27.730224,17.8057 z"
       id="path1015" />
    <path
       transform="matrix(0.998498,0.000000,0.000000,0.936426,176.6700,-1530.239)"
       style="font-size:12px;fill:#dbdbdb;fill-opacity:1;fill-rule:evenodd;stroke:#7c7016;stroke-width:1pt;stroke-opacity:1"
       d="m 67.136333,1653.0359 c 0,9.8338 -12.415244,17.8057 -27.730224,17.8057 -15.31498,0 -27.730225,-7.9719 -27.730225,-17.8057 0,-9.8338 12.415245,-17.8057 27.730225,-17.8057 15.31498,0 27.730224,7.9719 27.730224,17.8057 z"
       id="path1016" />
    <path
       transform="matrix(0.998498,0.000000,0.000000,0.936426,203.2139,-1530.239)"
       style="font-size:12px;fill:#dbdbdb;fill-opacity:1;fill-rule:evenodd;stroke:none"
       d="m 67.136333,1653.0359 c 0,9.8338 -12.415244,17.8057 -27.730224,17.8057 -15.31498,0 -27.730225,-7.9719 -27.730225,-17.8057 0,-9.8338 12.415245,-17.8057 27.730225,-17.8057 15.31498,0 27.730224,7.9719 27.730224,17.8057 z"
       id="path1017" />
  </g>
</svg>
