<?xml version="1.0" encoding="UTF-8" standalone="no"?>
<!-- Created with Inkscape (http://www.inkscape.org/) -->
<svg
   xmlns:dc="http://purl.org/dc/elements/1.1/"
   xmlns:cc="http://web.resource.org/cc/"
   xmlns:rdf="http://www.w3.org/1999/02/22-rdf-syntax-ns#"
   xmlns:svg="http://www.w3.org/2000/svg"
   xmlns="http://www.w3.org/2000/svg"
   xmlns:sodipodi="http://sodipodi.sourceforge.net/DTD/sodipodi-0.dtd"
   xmlns:inkscape="http://www.inkscape.org/namespaces/inkscape"
   width="273"
   height="118.00001"
   id="svg2493"
   sodipodi:version="0.32"
   inkscape:version="0.44+devel"
   sodipodi:modified="true"
   version="1.0">
  <defs
     id="defs2495" />
  <sodipodi:namedview
     id="base"
     pagecolor="#ffffff"
     bordercolor="#666666"
     borderopacity="1.0"
     gridtolerance="10000"
     guidetolerance="10"
     objecttolerance="10"
     inkscape:pageopacity="0.0"
     inkscape:pageshadow="2"
     inkscape:zoom="0.35"
     inkscape:cx="375"
     inkscape:cy="520"
     inkscape:document-units="px"
     inkscape:current-layer="layer1"
     inkscape:window-width="640"
     inkscape:window-height="538"
     inkscape:window-x="3"
     inkscape:window-y="28" />
  <metadata
     id="metadata2498">
    <rdf:RDF>
      <cc:Work
         rdf:about="">
        <dc:format>image/svg+xml</dc:format>
        <dc:type
           rdf:resource="http://purl.org/dc/dcmitype/StillImage" />
      </cc:Work>
    </rdf:RDF>
  </metadata>
  <g
     inkscape:label="Layer 1"
     inkscape:groupmode="layer"
     id="layer1"
     transform="translate(62.214289,-601.9336)">
    <g
       id="g7871"
       transform="translate(-121.50891,-1391.7196)">
      <path
         id="path6375"
         d="M 138.23212,2080.1532 L 64.357121,2080.1532 C 70.190641,2096.5443 85.656231,2109.1532 101.29462,2109.1532 C 116.93301,2109.1532 132.3986,2096.5443 138.23212,2080.1532 z "
         style="fill:#ff80ff;fill-opacity:1;fill-rule:evenodd;stroke:#000000;stroke-width:5;stroke-linecap:butt;stroke-linejoin:round;stroke-miterlimit:4;stroke-dasharray:none;stroke-opacity:1" />
      <path
         sodipodi:nodetypes="ccscscsc"
         id="path6377"
         d="M 129.85712,2026.1532 L 72.732121,2026.1532 C 66.168831,2040.2607 61.794621,2056.183 61.794621,2066.6532 C 61.794621,2071.3373 62.823381,2075.8437 64.357121,2080.1532 C 64.357121,2080.1532 84.388371,2089.1532 102.85712,2089.1532 C 121.32587,2089.1532 138.23212,2080.1532 138.23212,2080.1532 C 139.76586,2075.8437 140.79462,2071.3373 140.79462,2066.6532 C 140.79462,2056.183 136.42041,2040.2607 129.85712,2026.1532 z "
         style="fill:#ffff00;fill-opacity:1;fill-rule:evenodd;stroke:#000000;stroke-width:5;stroke-linecap:butt;stroke-linejoin:round;stroke-miterlimit:4;stroke-dasharray:none;stroke-opacity:1" />
      <path
         sodipodi:nodetypes="ccscc"
         id="path6379"
         d="M 101.29462,1996.1532 C 90.735101,1996.1532 80.273091,2009.9442 72.732121,2026.1532 C 72.732121,2026.1532 87.575871,2033.1532 101.85712,2033.1532 C 116.13837,2033.1532 129.85712,2026.1532 129.85712,2026.1532 C 122.31615,2009.9442 111.85414,1996.1532 101.29462,1996.1532 z "
         style="fill:#ff80ff;fill-opacity:1;fill-rule:evenodd;stroke:#000000;stroke-width:5;stroke-linecap:butt;stroke-linejoin:round;stroke-miterlimit:4;stroke-dasharray:none;stroke-opacity:1" />
      <path
         transform="translate(33.85101,260.6521)"
         d="M 53.152084,1797.8479 L 47.863453,1792.8691 L 40.91714,1794.992 L 44.017986,1788.4237 L 39.852434,1782.4734 L 47.057493,1783.3928 L 51.429354,1777.5923 L 52.781478,1784.7289 L 59.648989,1787.0943 L 53.279589,1790.5856 L 53.152084,1797.8479 z "
         inkscape:randomized="0"
         inkscape:rounded="0"
         inkscape:flatsided="false"
         sodipodi:arg2="1.8001101"
         sodipodi:arg1="1.1717916"
         sodipodi:r2="5"
         sodipodi:r1="10.687434"
         sodipodi:cy="1788"
         sodipodi:cx="49"
         sodipodi:sides="5"
         id="path6381"
         style="opacity:1;fill:#00ffff;fill-opacity:1;stroke:#000000;stroke-width:1;stroke-linecap:round;stroke-linejoin:miter;stroke-miterlimit:4;stroke-dasharray:none;stroke-opacity:1"
         sodipodi:type="star" />
      <path
         transform="translate(51.85101,284.652)"
         d="M 55,1796 L 49.07591,1792.9994 L 43.24565,1796.1785 L 44.268723,1789.6171 L 39.443616,1785.0546 L 46,1784 L 48.84818,1778.0012 L 51.877175,1783.9108 L 58.462554,1784.7658 L 53.778192,1789.4727 L 55,1796 z "
         inkscape:randomized="0"
         inkscape:rounded="0"
         inkscape:flatsided="false"
         sodipodi:arg2="1.5556137"
         sodipodi:arg1="0.92729522"
         sodipodi:r2="5"
         sodipodi:r1="10"
         sodipodi:cy="1788"
         sodipodi:cx="49"
         sodipodi:sides="5"
         id="path6383"
         style="opacity:1;fill:#00ffff;fill-opacity:1;stroke:#000000;stroke-width:1;stroke-linecap:round;stroke-linejoin:miter;stroke-miterlimit:4;stroke-dasharray:none;stroke-opacity:1"
         sodipodi:type="star" />
      <path
         transform="translate(70.79461,262.6532)"
         d="M 56.847917,1794.1521 L 50.370354,1792.8085 L 45.574161,1797.3649 L 44.850262,1790.7892 L 39.034798,1787.6357 L 45.064967,1784.9153 L 46.267006,1778.41 L 50.717754,1783.3043 L 57.276119,1782.4373 L 53.996663,1788.1826 L 56.847917,1794.1521 z "
         inkscape:randomized="0"
         inkscape:rounded="0"
         inkscape:flatsided="false"
         sodipodi:arg2="1.293173"
         sodipodi:arg1="0.66485448"
         sodipodi:r2="5"
         sodipodi:r1="9.9718571"
         sodipodi:cy="1788"
         sodipodi:cx="49"
         sodipodi:sides="5"
         id="path6385"
         style="opacity:1;fill:#00ffff;fill-opacity:1;stroke:#000000;stroke-width:1;stroke-linecap:round;stroke-linejoin:miter;stroke-miterlimit:4;stroke-dasharray:none;stroke-opacity:1"
         sodipodi:type="star" />
    </g>
    <path
       style="fill:#00ff00;fill-opacity:1;fill-rule:evenodd;stroke:#000000;stroke-width:5;stroke-linecap:butt;stroke-linejoin:round;stroke-miterlimit:4;stroke-dasharray:none;stroke-opacity:1"
       d="M 74.785714,604.43361 C 55.035714,604.43361 35.285714,652.43361 35.285714,674.93361 C 35.285714,697.43361 55.035714,717.43361 74.785714,717.43361 C 94.535714,717.43361 114.28571,697.43361 114.28571,674.93361 C 114.28571,652.43361 94.535714,604.43361 74.785714,604.43361 z "
       id="path6411"
       sodipodi:nodetypes="cssss" />
    <g
       id="g7879"
       transform="translate(-129.5089,-1386.0664)">
      <path
         id="path6399"
         d="M 335.23211,2074.5 L 261.35711,2074.5 C 267.19063,2090.8911 282.65622,2103.5 298.29461,2103.5 C 313.933,2103.5 329.39859,2090.8911 335.23211,2074.5 z "
         style="fill:#00ffff;fill-opacity:1;fill-rule:evenodd;stroke:#000000;stroke-width:5;stroke-linecap:butt;stroke-linejoin:round;stroke-miterlimit:4;stroke-dasharray:none;stroke-opacity:1" />
      <path
         sodipodi:nodetypes="ccscscsc"
         id="path6401"
         d="M 326.85711,2020.5 L 269.73211,2020.5 C 263.16882,2034.6075 258.79461,2050.5298 258.79461,2061 C 258.79461,2065.6841 259.82337,2070.1905 261.35711,2074.5 C 261.35711,2074.5 281.38836,2083.5 299.85711,2083.5 C 318.32586,2083.5 335.23211,2074.5 335.23211,2074.5 C 336.76585,2070.1905 337.79461,2065.6841 337.79461,2061 C 337.79461,2050.5298 333.4204,2034.6075 326.85711,2020.5 z "
         style="fill:#ffc700;fill-opacity:1;fill-rule:evenodd;stroke:#000000;stroke-width:5;stroke-linecap:butt;stroke-linejoin:round;stroke-miterlimit:4;stroke-dasharray:none;stroke-opacity:1" />
      <path
         sodipodi:nodetypes="ccscc"
         id="path6403"
         d="M 298.29461,1990.5 C 287.73509,1990.5 277.27308,2004.291 269.73211,2020.5 C 269.73211,2020.5 284.57586,2027.5 298.85711,2027.5 C 313.13836,2027.5 326.85711,2020.5 326.85711,2020.5 C 319.31614,2004.291 308.85413,1990.5 298.29461,1990.5 z "
         style="fill:#00ffff;fill-opacity:1;fill-rule:evenodd;stroke:#000000;stroke-width:5;stroke-linecap:butt;stroke-linejoin:round;stroke-miterlimit:4;stroke-dasharray:none;stroke-opacity:1" />
      <path
         transform="matrix(1.167562,0.435188,-0.470338,1.111144,911.5514,-349.1189)"
         d="M 289.76806 2044 A 7.2680554 8 0 1 1  275.23194,2044 A 7.2680554 8 0 1 1  289.76806 2044 z"
         sodipodi:ry="8"
         sodipodi:rx="7.2680554"
         sodipodi:cy="2044"
         sodipodi:cx="282.5"
         id="path7139"
         style="opacity:1;fill:#00ff00;fill-opacity:1;stroke:#000000;stroke-width:1;stroke-linecap:round;stroke-linejoin:miter;stroke-miterlimit:4;stroke-dasharray:none;stroke-opacity:1"
         sodipodi:type="arc" />
      <path
         transform="matrix(1.299723,-0.164525,0.22742,1.23294,-560.6732,-423.7563)"
         d="M 322.76806 2044.5 A 6.7680554 7.5 0 1 1  309.23194,2044.5 A 6.7680554 7.5 0 1 1  322.76806 2044.5 z"
         sodipodi:ry="7.5"
         sodipodi:rx="6.7680554"
         sodipodi:cy="2044.5"
         sodipodi:cx="316"
         id="path7141"
         style="opacity:1;fill:#00ff00;fill-opacity:1;stroke:#000000;stroke-width:1;stroke-linecap:round;stroke-linejoin:miter;stroke-miterlimit:4;stroke-dasharray:none;stroke-opacity:1"
         sodipodi:type="arc" />
      <path
         transform="matrix(0.975363,0,0,1.01537,6.18263,-30.29247)"
         d="M 311 2068.5 A 9.5 9.3479166 0 1 1  292,2068.5 A 9.5 9.3479166 0 1 1  311 2068.5 z"
         sodipodi:ry="9.3479166"
         sodipodi:rx="9.5"
         sodipodi:cy="2068.5"
         sodipodi:cx="301.5"
         id="path7143"
         style="opacity:1;fill:#00ff00;fill-opacity:1;stroke:#000000;stroke-width:1;stroke-linecap:round;stroke-linejoin:miter;stroke-miterlimit:4;stroke-dasharray:none;stroke-opacity:1"
         sodipodi:type="arc" />
    </g>
  </g>
</svg>
